Aplicação de testes parámetricos aos microdados do Enem: Teste-T e Teste-Z na prática
…
## Renomeando dados no banco

vestibulando_presente$TP_SEXO[vestibulando_presente$TP_SEXO == "M"] <- "Masculino"
vestibulando_presente$TP_SEXO[vestibulando_presente$TP_SEXO == "F"] <- "Feminino"

## Verificando colégios em que n < 30

vestibulando_presente %>% 
  group_by(CO_ESCOLA) %>% 
  summarise(qtde = n()) %>% 
  filter(qtde < 30) %>% 
  arrange(desc(qtde))

## # A tibble: 568 x 2
##    CO_ESCOLA  qtde
##        <int> <int>
##  1  22014470    29
##  2  22027343    29
##  3  22027360    29
##  4  22036369    29
##  5  22072500    29
##  6  22078096    29
##  7  22100083    29
##  8  22133682    29
##  9  22137602    29
## 10  22007431    28
## # ... with 558 more rows
…
